313321 534761 470
564530 795734 509
221834 452763 449
145826 874115 525
104006 863512 525
625757 105500 470
455038 577785 470
29354 943624 525
587661 170759 470
916824 503404 525
210084 312463 443
48113 519485 470
496426 990637 525
653017 467932 509
913969 870292 476
651959 816195 504
645035 846248 525
176678 914449 525
535740 797930 509
753069 102428 509
20684 310747 443
28489 875282 525
511978 399649 470
744529 274449 509
207805 937244 525
802246 889292 525
853982 300620 525
187970 113276 383
327317 909534 525
219570 834069 509
877073 678631 525
662298 951554 525
447858 525433 470
797530 834504 450
531065 965417 525
513038 876168 525
490817 631891 509
90072 35070 351
954626 819538 525
61600 771274 509
596090 295096 470
327685 485674 449
496862 402657 449
7748 190060 383
641766 413173 509
835655 605390 509
258142 127928 443
426126 625828 470
72510 576644 470
543985 22956 470
109913 567285 470
29991 741637 509
967340 432028 525
641664 959633 525
701107 255676 509
870539 416308 525
954995 735600 525
521801 268174 470
651303 140048 509
625080 798575 509
303413 721841 509
55683 972438 525
471242 645725 509
617946 12307 470
985390 7876 525
982038 446579 525
814098 318824 509
700761 760618 504
881267 659490 525
76627 996396 525
520379 965458 525
843662 13547 525
744713 492024 509
929832 303720 525
286253 824374 509
329786 344400 366
479834 466836 413
342746 28047 443
559604 43730 470
267344 177870 443
278622 550416 470
114416 412175 449
57586 590181 470
200845 609747 470
527281 2984 470
277079 407265 441
170892 236935 443
765628 471046 509
270020 227221 443
374314 460137 449
596497 798684 509
102156 208269 383
477428 106902 449
439631 696928 509
226624 211637 386
454821 930538 525
170987 508181 449
528061 293937 470
602310 194999 470
473519 315976 449
332907 29885 443
800048 171450 509
713164 725578 411
886425 477692 525
10983 339707 443
738 330632 443
264247 106977 443
525310 402856 470
801147 678969 504
554012 706355 509
133364 460284 449
142061 11335 354
702511 479902 509
917411 404537 525
981802 862159 507
299294 370314 441
509213 855333 525
140734 338489 443
875337 414248 525
780612 49589 509
127614 737238 509
366725 13452 443
454538 434175 400
656866 435344 509
187953 102588 383
86455 40981 351
297758 666707 509
81330 90109 333
409106 876789 525
137025 7756 354
738262 343948 509
424258 88618 449
946713 800563 525
767061 520297 509
637206 486193 509
171291 911231 525
662662 944435 525
225566 518445 470
262615 837150 509
675387 689619 398
195916 633783 509
83582 400461 443
778428 680205 504
600960 869583 525
584774 579486 434
394986 687249 509
477785 325984 449
637564 50386 509
527049 359313 470
385783 358326 423
709394 599264 509
312592 523069 470
226329 766725 509
650931 411484 509
499084 858753 525
516443 510372 470
221491 705383 509
234795 961873 525
396613 580281 470
70771 592415 470
618185 815 470
895256 357667 525
677346 617528 509
496794 705874 509
93964 849159 525
615167 584327 447
493898 574281 470
772877 19123 509
640717 927400 525
248439 677321 509
736580 140301 509
431466 895658 525
852820 301866 525
368319 193736 443
136624 572411 470
767743 816395 468
438101 187424 449
482928 572565 470
396672 903966 525
784969 28147 509
935942 703466 525
628423 511173 509
622928 690310 509
698700 137020 509
482145 266349 449
265751 232115 407
487326 687024 509
813905 340041 509
455405 686145 509
424445 959312 525
902530 295944 525
991814 995966 365
417202 205963 449
646994 422925 509
207345 602860 470
554535 740418 509
490971 527814 470
712007 31415 509
987174 393199 525
879250 632595 525
