899338 656947 525
233871 388492 441
270846 765691 509
873787 131814 525
522839 876682 525
851743 566069 525
996647 945845 458
529381 770218 509
345036 117688 443
54109 533347 470
795536 406956 509
880532 857802 432
669655 325737 509
400052 445269 449
468300 68213 449
495812 367638 449
241512 729682 509
272481 28709 443
495372 662619 509
160522 18210 383
539301 12265 470
100631 52299 351
474461 630011 509
822516 819496 450
264050 876624 525
352842 59586 443
799931 233374 509
433739 469586 444
75462 350142 443
431206 60113 449
934707 927017 414
944102 692570 525
656698 216583 509
721278 668421 504
395553 881799 525
202983 934853 525
894063 819965 525
987151 368523 525
449975 326018 449
188018 230377 386
718994 57212 509
806314 518924 509
806937 240052 509
988509 398750 525
106546 419715 449
458862 41252 449
863083 402964 525
733821 519781 509
135898 971450 525
704553 531450 509
853248 907535 445
982655 747311 525
727499 486157 509
632185 693826 442
812175 336555 509
924202 531168 525
393766 246867 441
50091 717054 509
486918 554952 470
115803 109815 349
974666 91016 525
151066 354100 443
10331 401238 443
873880 662580 525
372687 578433 470
710382 742287 424
2319 693036 509
5949 729818 509
179192 638133 509
423643 991366 525
974687 864196 507
38885 884804 525
627414 88976 509
601857 114331 470
643927 234011 509
740498 134944 509
325027 407915 441
489043 851709 525
809153 879275 525
514289 698191 509
974059 741022 525
956829 976377 458
434057 962777 525
222546 129600 386
600910 646188 509
637318 575596 509
26735 676202 509
976752 654148 525
281529 578608 470
284831 441807 449
328971 541680 470
576750 170349 470
949594 582145 525
22057 275098 443
461419 52697 449
973289 951829 458
793718 930117 525
928205 744126 525
409246 150751 443
390078 10155 443
313290 27395 443
102102 856377 525
219948 78853 386
26876 17829 308
173813 828058 509
459635 502783 444
369737 36385 443
189483 319331 443
134881 211539 383
594428 112651 470
780588 84068 509
64479 574305 470
530537 992683 525
834783 939782 525
659785 224860 509
949936 973075 458
252254 52037 443
345803 988553 525
647242 372678 509
6381 821054 509
200736 466016 449
840188 570472 525
18752 29670 308
406154 669984 509
757560 582 509
782634 538147 509
601001 847112 525
628804 131537 509
356146 463586 449
71318 15931 340
688445 537605 509
505357 457050 444
105994 851159 525
961954 753235 525
740188 968335 525
90640 940923 525
950702 930827 507
27747 485805 449
476848 433900 444
155788 234407 443
950833 938421 507
288906 551834 470
301884 917709 525
683370 658029 442
897646 271040 525
190311 102442 383
808644 212019 509
559491 914637 525
63177 37796 340
184223 803365 509
522482 274862 470
260639 473183 449
205688 288385 443
475339 682535 509
238637 631126 509
433294 189469 449
85898 722199 509
741302 904133 525
639907 941024 525
78514 537552 470
212063 268824 443
639993 537058 509
480843 715835 509
451695 60371 449
269982 152269 443
380087 792464 509
427131 640726 509
781998 149170 509
445462 257337 449
348057 200450 443
404814 781350 509
389919 7064 443
503548 647572 509
911196 659806 525
588595 506061 470
713709 317009 509
291237 870053 525
854067 288431 525
102239 822113 509
348801 372220 410
974381 245240 525
164683 401511 443
402317 946681 525
67033 847778 525
720369 415089 509
564580 125182 470
712790 470850 509
648597 732689 504
118421 76145 354
392494 223368 443
582205 622554 447
540376 873441 525
492606 910794 525
161871 594844 470
732906 27024 509
483415 707287 509
272263 164450 443
625149 674579 509
111130 208533 383
38708 347850 443
