627505 779948 504
471763 865653 525
196381 713124 509
249927 322754 407
22685 498835 449
863259 328494 525
813589 588597 509
829218 941892 525
814584 13306 509
864404 293050 525
339418 394074 441
316183 6602 443
753165 276984 509
607739 424756 470
804967 374223 509
574367 171518 470
372188 560630 470
432078 303721 449
233513 114444 443
161001 573789 470
615656 267417 470
755046 614514 509
632744 544800 509
832377 7708 509
739406 331061 509
51467 538590 470
903430 873648 445
789894 929572 525
299210 581932 470
455671 673057 509
571253 53093 470
393853 319885 441
18398 820739 509
914201 723279 525
251692 101063 443
814673 443273 509
6517 306097 443
777817 432655 509
436337 64351 449
588470 730597 509
139730 152287 375
609286 386725 470
590013 99594 470
242851 928101 525
990663 963971 458
123956 425092 449
551894 501187 470
430924 272875 449
268152 354385 441
168238 905006 525
718123 525949 509
888823 155670 525
497619 78177 449
828548 687093 504
829367 533004 509
239264 185869 443
572254 599309 434
201083 481695 449
417130 816436 509
6602 593135 470
891805 366862 525
495102 901370 525
431184 57104 449
287069 88895 443
642343 530257 509
292035 798749 509
940662 358263 525
487410 696810 509
451642 266550 449
467356 581816 470
655030 171861 509
923328 934479 476
571532 284268 470
81237 954027 525
63666 648767 509
567727 95591 470
125649 10458 354
633571 774270 504
776773 928816 525
864103 775390 525
395609 628572 509
765352 913781 525
813192 489339 509
804890 622221 509
833424 896141 525
452747 345267 449
652191 307291 509
687300 411681 509
498292 223740 449
915005 341691 525
179941 720144 509
259242 316354 407
153706 7026 375
774828 114954 509
115601 770428 509
130679 869847 525
272416 126252 443
335202 930698 525
383390 592234 470
457846 85263 449
178864 641637 509
225080 598006 470
557252 688937 509
180897 199258 360
392224 991519 525
629888 402192 509
288686 823253 509
234085 768291 509
917762 960153 507
157664 764550 509
466187 41703 449
558012 822821 509
739413 460943 509
643460 486596 509
717047 574181 509
808747 542373 509
341935 613610 470
384562 989863 525
89268 942151 525
837441 935340 525
210 988151 525
544280 266223 470
146605 325261 443
443378 992728 525
757490 884408 525
145184 26603 375
67981 559680 470
51009 486861 449
614020 323919 470
743190 930411 525
195159 249155 443
78400 879931 525
642512 823612 504
672655 36641 509
531789 492307 470
924745 540994 525
36388 844118 525
740115 138961 509
6733 916453 525
674449 729900 504
517082 411732 470
960065 91272 525
774637 601689 509
262612 74888 443
442403 77508 449
726762 929696 525
26412 327178 443
139336 141468 344
983361 633562 525
772569 157743 509
219943 613925 470
623134 6545 470
325299 706900 509
573966 951365 525
531725 72310 470
635315 170494 509
701232 203326 509
43085 173163 383
875171 336060 525
631318 700229 442
297430 894246 525
311219 153764 443
107211 22886 354
58067 403203 443
813985 277732 509
285696 69896 443
273578 5846 443
134864 863455 525
802422 920860 525
519212 604774 452
274851 404399 441
516797 852802 525
786781 548205 509
258871 617261 470
824045 807020 450
684638 171827 509
145461 28071 375
93880 165781 383
7824 399454 443
432983 534400 470
560993 666522 509
658884 214569 509
773578 103600 509
283453 604256 470
880325 58089 525
962194 896558 507
226630 884869 525
244002 409221 441
747694 548934 509
373973 395742 436
93345 888162 525
496567 828859 509
8924 996561 525
664324 205624 509
351216 581622 470
764144 603331 509
3113 87780 351
553116 195697 470
886682 644423 525
228116 184615 386
651559 932611 525
120902 625761 470
235604 508029 449
800066 429356 509
238655 581829 470
493205 461845 426
935328 579772 525
655583 140558 509
428985 441674 400
66032 425733 449
422073 250334 449
684420 217137 509
882277 787941 525
609109 502161 470
842147 217756 525
859162 134775 525
669393 922506 525
783157 781732 362
410980 128404 449
53555 310970 443
731780 723087 380
240769 356632 441
243236 252660 350
286793 204200 443
554952 595119 434
309108 881993 525
125658 389618 443
954611 316469 525
269444 836000 509
142857 547625 470
62072 942892 525
581553 646011 509
846632 7907 525
186521 143779 383
63406 132557 354
542804 367212 470
595365 768994 509
128303 136208 344
969539 516430 525
5308 472896 449
515759 143074 470
582320 417531 470
362279 642692 509
254456 790716 509
2546 156331 383
26008 228692 386
522179 505756 470
99710 89791 333
716426 471189 509
25350 583983 470
694263 137544 509
554394 936797 525
384449 354606 423
870020 377660 525
485743 248922 449
419965 791615 509
918824 671829 525
513529 230308 470
526881 497521 470
311306 565163 470
716721 859207 525
846954 877121 432
685136 89091 509
84984 787502 509
350393 182749 443
948521 515395 525
539395 805752 509
945426 831882 525
162899 639792 509
605632 727601 509
76306 318435 443
938606 726827 525
375361 559050 470
646346 132047 509
181517 110597 383
668618 201078 509
970929 130929 525
587198 85994 470
112385 95598 354
577820 795461 509
389285 108092 443
876965 355363 525
632388 111544 509
921338 788865 525
482321 310574 449
989324 180207 525
877563 352367 525
534575 896714 525
835427 390605 509
406725 21416 443
85509 57845 351
486277 921140 525
423557 513390 470
776756 869206 525
992127 718819 525
210701 469022 449
125745 390910 443
516905 976230 525
308186 337568 384
772073 436023 509
556949 550507 421
